Residential 1 4897580 0 564 Out of names
Commercial 0 23343 0 .2 456 Not named
Residential 0 1548975 1 946 Another Place
Commercial 0 .2 Something Else
Commercial 1 4597230 1 .2 313 Cherry Lane
Roadkill 06 .2
Commercial 0 8975564 1 0.10 742 Fast Driving