Commercial 0 1234567 1 0.10 950 Ocean Beach
Residential 1 533000 0 572 Is this the right way
Commercial 23343.2 .2 Not right
Residential 0 250000 1 102 I don't care
Bob's Lane
Commercial 0 .2 Something
Commercial 1 2645678 0 .2 798 Somewhere Dr.